Introduction to Dataframes – MA500: Introduction to R
…
hide code

player2 <- ow_long_with_hero %>%
  filter(Player == "player2") %>%
  group_by(Player, Hero, value_type) %>%
  summarise(sum_val = sum(value))

`summarise()` has grouped output by 'Player', 'Hero'. You can override using
the `.groups` argument.

hide code

print(player2)

# A tibble: 30 × 4
# Groups:   Player, Hero [5]
   Player  Hero       value_type  sum_val
   <chr>   <chr>      <chr>         <dbl>
 1 player2 Lifeweaver Assists          17
 2 player2 Lifeweaver Damage         2239
 3 player2 Lifeweaver Deaths            3
 4 player2 Lifeweaver Elimination      11
 5 player2 Lifeweaver Heals          8181
 6 player2 Lifeweaver Mitigation        0
 7 player2 Mauga      Assists          17
 8 player2 Mauga      Damage        10449
 9 player2 Mauga      Deaths           16
10 player2 Mauga      Elimination      44
# ℹ 20 more rows
…
